%YAML 1.1
%TAG !u! tag:unity3d.com,2011:
--- !u!74 &7400000
AnimationClip:
  m_ObjectHideFlags: 0
  m_PrefabParentObject: {fileID: 0}
  m_PrefabInternal: {fileID: 0}
  m_Name: Explosion
  serializedVersion: 6
  m_Legacy: 0
  m_Compressed: 0
  m_UseHighQualityCurve: 1
  m_RotationCurves: []
  m_CompressedRotationCurves: []
  m_EulerCurves: []
  m_PositionCurves: []
  m_ScaleCurves: []
  m_FloatCurves:
  - curve:
      serializedVersion: 2
      m_Curve:
      - serializedVersion: 2
        time: 0
        value: 1
        inSlope: Infinity
        outSlope: Infinity
        tangentMode: 103
      - serializedVersion: 2
        time: 0.73333335
        value: 0
        inSlope: Infinity
        outSlope: Infinity
        tangentMode: 103
      m_PreInfinity: 2
      m_PostInfinity: 2
      m_RotationOrder: 4
    attribute: m_Enabled
    path: 
    classID: 212
    script: {fileID: 0}
  m_PPtrCurves:
  - curve:
    - time: 0
      value: {fileID: 21300000, guid: 68d816967eabe4a4f82620db6fa5eafd, type: 3}
    - time: 0.033333335
      value: {fileID: 21300000, guid: 7f77d48711c7c457eb096b548d56ea4a, type: 3}
    - time: 0.06666667
      value: {fileID: 21300000, guid: 5b5ff2a60d0af462194308aeb12b73da, type: 3}
    - time: 0.1
      value: {fileID: 21300000, guid: 59aae11acd5314deea9bf4526c8eed1d, type: 3}
    - time: 0.13333334
      value: {fileID: 21300000, guid: a951386725ab64728bc834d1bfa47df1, type: 3}
    - time: 0.16666667
      value: {fileID: 21300000, guid: d2ac2eabd6a6f4f1a87835e4125ea7c2, type: 3}
    - time: 0.2
      value: {fileID: 21300000, guid: 5f556ad3bd8f042a7a0736ddb5a2448c, type: 3}
    - time: 0.23333333
      value: {fileID: 21300000, guid: adb510d55bae444148a5b125042dcbea, type: 3}
    - time: 0.26666668
      value: {fileID: 21300000, guid: 878a05d9dd4fb46cab78f9d2b4abf0b0, type: 3}
    - time: 0.3
      value: {fileID: 21300000, guid: c78fb49298d054f25a42339ff2822e30, type: 3}
    - time: 0.33333334
      value: {fileID: 21300000, guid: 5f313d444a7d5449f98fb5dc061ad8ab, type: 3}
    - time: 0.36666667
      value: {fileID: 21300000, guid: b37fc22da2c544ca185471188fe67ba1, type: 3}
    - time: 0.4
      value: {fileID: 21300000, guid: 3d4e9954b6a284404bf6d8fcc74b6e0b, type: 3}
    - time: 0.43333334
      value: {fileID: 21300000, guid: 7a01247f7df5048c1aa96e4962cf6597, type: 3}
    - time: 0.46666667
      value: {fileID: 21300000, guid: 3a58165bf463943558eea8631ea0ad2a, type: 3}
    - time: 0.5
      value: {fileID: 21300000, guid: 2654c86e4293c476a900480ac602d455, type: 3}
    - time: 0.53333336
      value: {fileID: 21300000, guid: 5d6e61fd9636745b791372a11a4920a8, type: 3}
    - time: 0.56666666
      value: {fileID: 21300000, guid: 233c833bcb9864cd79289743f6c9b3ca, type: 3}
    - time: 0.6
      value: {fileID: 21300000, guid: 7c01220dbeb2145d9adfc30a73670465, type: 3}
    - time: 0.6333333
      value: {fileID: 21300000, guid: cb2b321495e7a400b92d6569688e34b6, type: 3}
    - time: 0.6666667
      value: {fileID: 21300000, guid: f6d74190452d143c49c1ff8281b3b152, type: 3}
    - time: 0.7
      value: {fileID: 21300000, guid: e041a79dc135040ef9a84161a849f2f8, type: 3}
    attribute: m_Sprite
    path: 
    classID: 212
    script: {fileID: 0}
  m_SampleRate: 30
  m_WrapMode: 0
  m_Bounds:
    m_Center: {x: 0, y: 0, z: 0}
    m_Extent: {x: 0, y: 0, z: 0}
  m_ClipBindingConstant:
    genericBindings:
    - serializedVersion: 2
      path: 0
      attribute: 3305885265
      script: {fileID: 0}
      typeID: 212
      customType: 0
      isPPtrCurve: 0
    - serializedVersion: 2
      path: 0
      attribute: 0
      script: {fileID: 0}
      typeID: 212
      customType: 23
      isPPtrCurve: 1
    pptrCurveMapping:
    - {fileID: 21300000, guid: 68d816967eabe4a4f82620db6fa5eafd, type: 3}
    - {fileID: 21300000, guid: 7f77d48711c7c457eb096b548d56ea4a, type: 3}
    - {fileID: 21300000, guid: 5b5ff2a60d0af462194308aeb12b73da, type: 3}
    - {fileID: 21300000, guid: 59aae11acd5314deea9bf4526c8eed1d, type: 3}
    - {fileID: 21300000, guid: a951386725ab64728bc834d1bfa47df1, type: 3}
    - {fileID: 21300000, guid: d2ac2eabd6a6f4f1a87835e4125ea7c2, type: 3}
    - {fileID: 21300000, guid: 5f556ad3bd8f042a7a0736ddb5a2448c, type: 3}
    - {fileID: 21300000, guid: adb510d55bae444148a5b125042dcbea, type: 3}
    - {fileID: 21300000, guid: 878a05d9dd4fb46cab78f9d2b4abf0b0, type: 3}
    - {fileID: 21300000, guid: c78fb49298d054f25a42339ff2822e30, type: 3}
    - {fileID: 21300000, guid: 5f313d444a7d5449f98fb5dc061ad8ab, type: 3}
    - {fileID: 21300000, guid: b37fc22da2c544ca185471188fe67ba1, type: 3}
    - {fileID: 21300000, guid: 3d4e9954b6a284404bf6d8fcc74b6e0b, type: 3}
    - {fileID: 21300000, guid: 7a01247f7df5048c1aa96e4962cf6597, type: 3}
    - {fileID: 21300000, guid: 3a58165bf463943558eea8631ea0ad2a, type: 3}
    - {fileID: 21300000, guid: 2654c86e4293c476a900480ac602d455, type: 3}
    - {fileID: 21300000, guid: 5d6e61fd9636745b791372a11a4920a8, type: 3}
    - {fileID: 21300000, guid: 233c833bcb9864cd79289743f6c9b3ca, type: 3}
    - {fileID: 21300000, guid: 7c01220dbeb2145d9adfc30a73670465, type: 3}
    - {fileID: 21300000, guid: cb2b321495e7a400b92d6569688e34b6, type: 3}
    - {fileID: 21300000, guid: f6d74190452d143c49c1ff8281b3b152, type: 3}
    - {fileID: 21300000, guid: e041a79dc135040ef9a84161a849f2f8, type: 3}
  m_AnimationClipSettings:
    serializedVersion: 2
    m_AdditiveReferencePoseClip: {fileID: 0}
    m_AdditiveReferencePoseTime: 0
    m_StartTime: 0
    m_StopTime: 0.73333335
    m_OrientationOffsetY: 0
    m_Level: 0
    m_CycleOffset: 0
    m_HasAdditiveReferencePose: 0
    m_LoopTime: 0
    m_LoopBlend: 0
    m_LoopBlendOrientation: 0
    m_LoopBlendPositionY: 0
    m_LoopBlendPositionXZ: 0
    m_KeepOriginalOrientation: 0
    m_KeepOriginalPositionY: 1
    m_KeepOriginalPositionXZ: 0
    m_HeightFromFeet: 0
    m_Mirror: 0
  m_EditorCurves:
  - curve:
      serializedVersion: 2
      m_Curve:
      - serializedVersion: 2
        time: 0
        value: 1
        inSlope: Infinity
        outSlope: Infinity
        tangentMode: 103
      - serializedVersion: 2
        time: 0.73333335
        value: 0
        inSlope: Infinity
        outSlope: Infinity
        tangentMode: 103
      m_PreInfinity: 2
      m_PostInfinity: 2
      m_RotationOrder: 4
    attribute: m_Enabled
    path: 
    classID: 212
    script: {fileID: 0}
  m_EulerEditorCurves: []
  m_HasGenericRootTransform: 0
  m_HasMotionFloatCurves: 0
  m_GenerateMotionCurves: 0
  m_Events: []
