%YAML 1.1
%TAG !u! tag:unity3d.com,2011:
--- !u!1 &100000
GameObject:
  m_ObjectHideFlags: 0
  m_PrefabParentObject: {fileID: 0}
  m_PrefabInternal: {fileID: 100100000}
  serializedVersion: 5
  m_Component:
  - component: {fileID: 400000}
  - component: {fileID: 11400000}
  m_Layer: 0
  m_Name: data
  m_TagString: Untagged
  m_Icon: {fileID: 0}
  m_NavMeshLayer: 0
  m_StaticEditorFlags: 0
  m_IsActive: 1
--- !u!1002 &100001
EditorExtensionImpl:
  serializedVersion: 6
--- !u!4 &400000
Transform:
  m_ObjectHideFlags: 1
  m_PrefabParentObject: {fileID: 0}
  m_PrefabInternal: {fileID: 100100000}
  m_GameObject: {fileID: 100000}
  m_LocalRotation: {x: 0, y: 0, z: 0, w: 1}
  m_LocalPosition: {x: 0, y: 0, z: 0}
  m_LocalScale: {x: 1, y: 1, z: 1}
  m_Children: []
  m_Father: {fileID: 0}
  m_RootOrder: 0
  m_LocalEulerAnglesHint: {x: 0, y: 0, z: 0}
--- !u!1002 &400001
EditorExtensionImpl:
  serializedVersion: 6
--- !u!114 &11400000
MonoBehaviour:
  m_ObjectHideFlags: 1
  m_PrefabParentObject: {fileID: 0}
  m_PrefabInternal: {fileID: 100100000}
  m_GameObject: {fileID: 100000}
  m_Enabled: 1
  m_EditorHideFlags: 0
  m_Script: {fileID: 11500000, guid: d546f34a90531a14eaba82a43b05b86b, type: 3}
  m_Name: 
  m_EditorClassIdentifier: 
  version: 3
  materialIdsValid: 1
  needMaterialInstance: 0
  spriteDefinitions:
  - name: heart_empty
    boundsData:
    - {x: 0.5, y: 0, z: 0}
    - {x: 45, y: 40, z: 0}
    untrimmedBoundsData:
    - {x: 0.5, y: 0, z: 0}
    - {x: 45, y: 40, z: 0}
    texelSize: {x: 1, y: 1}
    positions:
    - {x: -22, y: -20, z: 0}
    - {x: 23, y: -20, z: 0}
    - {x: -22, y: 20, z: 0}
    - {x: 23, y: 20, z: 0}
    normals: []
    tangents: []
    uvs:
    - {x: 0.015632812, y: 0.015632812}
    - {x: 0.3671797, y: 0.015632812}
    - {x: 0.015632812, y: 0.3281172}
    - {x: 0.3671797, y: 0.3281172}
    indices: 000000000300000001000000020000000300000000000000
    material: {fileID: 2100000, guid: 45d35519481f70649a530df6dcddd423, type: 2}
    materialId: 0
    sourceTextureGUID: c3cedcf3f2f726c4ea2af2b350a9ce88
    extractRegion: 0
    regionX: 0
    regionY: 0
    regionW: 0
    regionH: 0
    flipped: 0
    complexGeometry: 0
    physicsEngine: 0
    colliderType: 1
    customColliders: []
    colliderVertices: []
    colliderIndicesFwd: 
    colliderIndicesBack: 
    colliderConvex: 0
    colliderSmoothSphereCollisions: 0
    polygonCollider2D: []
    edgeCollider2D: []
    attachPoints: []
  - name: heart_full
    boundsData:
    - {x: 0.5, y: 0, z: 0}
    - {x: 45, y: 40, z: 0}
    untrimmedBoundsData:
    - {x: 0.5, y: 0, z: 0}
    - {x: 45, y: 40, z: 0}
    texelSize: {x: 1, y: 1}
    positions:
    - {x: -22, y: -20, z: 0}
    - {x: 23, y: -20, z: 0}
    - {x: -22, y: 20, z: 0}
    - {x: 23, y: 20, z: 0}
    normals: []
    tangents: []
    uvs:
    - {x: 0.3984453, y: 0.015632812}
    - {x: 0.7499922, y: 0.015632812}
    - {x: 0.3984453, y: 0.3281172}
    - {x: 0.7499922, y: 0.3281172}
    indices: 000000000300000001000000020000000300000000000000
    material: {fileID: 2100000, guid: 45d35519481f70649a530df6dcddd423, type: 2}
    materialId: 0
    sourceTextureGUID: 5083dbb889212cf4082bbce0e506a093
    extractRegion: 0
    regionX: 0
    regionY: 0
    regionW: 0
    regionH: 0
    flipped: 0
    complexGeometry: 0
    physicsEngine: 0
    colliderType: 1
    customColliders: []
    colliderVertices: []
    colliderIndicesFwd: 
    colliderIndicesBack: 
    colliderConvex: 0
    colliderSmoothSphereCollisions: 0
    polygonCollider2D: []
    edgeCollider2D: []
    attachPoints: []
  - name: heart_half
    boundsData:
    - {x: 0.5, y: 0, z: 0}
    - {x: 45, y: 40, z: 0}
    untrimmedBoundsData:
    - {x: 0.5, y: 0, z: 0}
    - {x: 45, y: 40, z: 0}
    texelSize: {x: 1, y: 1}
    positions:
    - {x: -22, y: -20, z: 0}
    - {x: 23, y: -20, z: 0}
    - {x: -22, y: 20, z: 0}
    - {x: 23, y: 20, z: 0}
    normals: []
    tangents: []
    uvs:
    - {x: 0.015632812, y: 0.3593828}
    - {x: 0.015632812, y: 0.7109297}
    - {x: 0.3281172, y: 0.3593828}
    - {x: 0.3281172, y: 0.7109297}
    indices: 000000000300000001000000020000000300000000000000
    material: {fileID: 2100000, guid: 45d35519481f70649a530df6dcddd423, type: 2}
    materialId: 0
    sourceTextureGUID: 775e311b21d73a74c93ca74a71671b1e
    extractRegion: 0
    regionX: 0
    regionY: 0
    regionW: 0
    regionH: 0
    flipped: 1
    complexGeometry: 0
    physicsEngine: 0
    colliderType: 1
    customColliders: []
    colliderVertices: []
    colliderIndicesFwd: 
    colliderIndicesBack: 
    colliderConvex: 0
    colliderSmoothSphereCollisions: 0
    polygonCollider2D: []
    edgeCollider2D: []
    attachPoints: []
  - name: window
    boundsData:
    - {x: 0.5, y: 0, z: 0}
    - {x: 45, y: 40, z: 0}
    untrimmedBoundsData:
    - {x: 0.5, y: 0, z: 0}
    - {x: 45, y: 40, z: 0}
    texelSize: {x: 1, y: 1}
    positions:
    - {x: -22, y: -20, z: 0}
    - {x: 23, y: -20, z: 0}
    - {x: -22, y: 20, z: 0}
    - {x: 23, y: 20, z: 0}
    normals: []
    tangents: []
    uvs:
    - {x: 0.3593828, y: 0.3593828}
    - {x: 0.7109297, y: 0.3593828}
    - {x: 0.3593828, y: 0.6718672}
    - {x: 0.7109297, y: 0.6718672}
    indices: 000000000300000001000000020000000300000000000000
    material: {fileID: 2100000, guid: 45d35519481f70649a530df6dcddd423, type: 2}
    materialId: 0
    sourceTextureGUID: 03fff0d1701d7e14399d5ee2209561dc
    extractRegion: 0
    regionX: 0
    regionY: 0
    regionW: 0
    regionH: 0
    flipped: 0
    complexGeometry: 0
    physicsEngine: 0
    colliderType: 1
    customColliders: []
    colliderVertices: []
    colliderIndicesFwd: 
    colliderIndicesBack: 
    colliderConvex: 0
    colliderSmoothSphereCollisions: 0
    polygonCollider2D: []
    edgeCollider2D: []
    attachPoints: []
  premultipliedAlpha: 1
  material: {fileID: 0}
  materials:
  - {fileID: 2100000, guid: 45d35519481f70649a530df6dcddd423, type: 2}
  textures:
  - {fileID: 2800000, guid: 6a5c20ae58dae9d44b7cdade69bd0bbc, type: 3}
  pngTextures: []
  materialPngTextureId: 00000000
  textureFilterMode: 1
  textureMipMaps: 0
  allowMultipleAtlases: 0
  spriteCollectionGUID: ff338294f6bf0b345850bad080ef85dc
  spriteCollectionName: DemoCameraSpriteCollection
  assetName: 
  loadable: 0
  invOrthoSize: 2
  halfTargetHeight: 0.5
  buildKey: 806321008
  dataGuid: 4864518b0693631458553f73aaa86021
  managedSpriteCollection: 0
  hasPlatformData: 0
  spriteCollectionPlatforms: []
  spriteCollectionPlatformGUIDs: []
--- !u!1002 &11400001
EditorExtensionImpl:
  serializedVersion: 6
--- !u!1001 &100100000
Prefab:
  m_ObjectHideFlags: 1
  serializedVersion: 2
  m_Modification:
    m_TransformParent: {fileID: 0}
    m_Modifications: []
    m_RemovedComponents: []
  m_ParentPrefab: {fileID: 0}
  m_RootGameObject: {fileID: 100000}
  m_IsPrefabParent: 1
--- !u!1002 &100100001
EditorExtensionImpl:
  serializedVersion: 6
